Learn crime mapping with R - 9 Mapping area data
…
9.6 Calculating crime rates

One use of choropleth maps is to combine crime counts with other data. One reason to do this is to calculate a crime rate, i.e. an expression of the frequency of crime that in some way controls for the population that is exposed to crime. We often use choropleth maps for this because we only have population counts for areas, rather than knowing where each individual person lives.

Before we learn about different types of crime rate, lets create a targeting table for murder in districts in Uttar Pradesh: a table that shows the districts with the highest number of murders.

district_murders |> 
  # Remove the `geometry` column to make the table clearer
  st_drop_geometry() |> 
  # Also remove the `state` column, since it is the same for every row
  select(-state) |> 
  # Arrange the table so the districts with the most murders are first
  arrange(desc(murder))

# A tibble: 75 × 2
   district_name murder
   <chr>          <dbl>
 1 Meerut           226
 2 Aligarh          179
 3 Agra             178
 4 Bulandshahr      171
 5 Ghaziabad        166
 6 Firozabad        140
 7 Kanpur Nagar     137
 8 Muzaffarnagar    137
 9 Bareilly         132
10 Allahabad        132
# ℹ 65 more rows
…
