Learn crime mapping with R - 16 Mapping crime over time
…
Because of the special nature of dates, if we want to work with a date variable (for example to create a chart of crime over time) it is important that it is stored as a date, not as text or as a number. Many R functions for reading data, including read_csv(), read_tsv() and read_excel(), will try to recognise columns of data that contain dates and times stored in common formats. These will automatically be stored as date variables when the data is loaded.

If R does not recognise automatically that a value contains a date, we can convert it to a date by using the date-parsing functions from lubridate. Which function to use depends on the order in which the components of the date (e.g.  day, month and year) appear in the variable. For example, to convert the text “Saturday 17 January 1981” to a date format we can use the dmy() function because the day of the month comes first, the month next and then the year. Similarly, converting the text “01/17/81” needs the function mdy(). Note that the lubridate date-parsing functions are able convert both numeric and text-based months, and to ignore elements that aren’t needed, such as weekday names.

If a date is stored in multiple columns in a dataset, e.g. one column for the year, one column for the month and one column for the day, we can create a single date column using the make_date() function to combine them. Similarly, we can create a date-time column using the make_datetime() function. For example, if we have a dataset of crimes called thefts:

library(lubridate)

thefts |>  
  mutate(
    date = make_date(year = year, month = month_of_year, day = day_of_month)
  ) |>  
  select(day_of_month, month_of_year, year, date)

# A tibble: 1,840 × 4
   day_of_month month_of_year  year date      
          <dbl>         <dbl> <dbl> <date>    
 1            1             9  2020 2020-09-01
 2            1             9  2020 2020-09-01
 3            1             9  2020 2020-09-01
 4            1             9  2020 2020-09-01
 5            1             9  2020 2020-09-01
 6            1             9  2020 2020-09-01
 7            1             9  2020 2020-09-01
 8            1             9  2020 2020-09-01
 9            1             9  2020 2020-09-01
10            1             9  2020 2020-09-01
# ℹ 1,830 more rows
…
It is sometimes useful to be able to add to or subtract from dates. For example, if you wanted to filter a dataset so that only records from the past 28 days were included, you would need to work out the date 28 days ago. We can do this with a group of functions from lubridate that store a period of time that we can then add to or subtract from an existing date. These functions are years(), months(), weeks(), days(), hours(), minutes(), and seconds().

In the lubridate package, functions that are used to extract parts of a date are singular, e.g. day(), month(), year(). Functions that are used to manipulate dates by adding or subtracting from them are plural, e.g.  days(), months(), years(). So, for example, you would use the code month(now()) to extract the month (as a number between 1 and 12) from the current date but the code now() + months(1) to find out what the date and time will be one month from now.

To subtract 28 days from today’s date (which we can retrieve with the today() function), we would use today() - days(28).

message(str_glue("Today is {today()} and 28 days ago was {today() - days(28)}"))

Today is 2024-03-18 and 28 days ago was 2024-02-19

Adding or subtracting periods from dates can be very useful when combined with the filter() function from the dplyr() package. For example, if we had a dataset of crimes stored in an object called crimes and wanted to extract only those that occurred in the most-recent seven days, we could do this:

filter(crimes, occur_date >= today() - days(7))

# A tibble: 49 × 5
   incident_key occur_date murder longitude latitude
          <dbl> <date>     <lgl>      <dbl>    <dbl>
 1    191997175 2024-03-13 FALSE      -73.9     40.8
 2    192059857 2024-03-12 TRUE       -73.9     40.9
 3    192582052 2024-03-14 FALSE      -73.9     40.9
 4    192876454 2024-03-16 FALSE      -73.9     40.8
 5    192876454 2024-03-11 FALSE      -73.9     40.8
 6    193694861 2024-03-12 FALSE      -73.9     40.9
 7    194525844 2024-03-15 FALSE      -73.9     40.8
 8    195145308 2024-03-14 FALSE      -73.9     40.8
 9    195397264 2024-03-16 FALSE      -73.9     40.8
10    195699912 2024-03-16 FALSE      -73.9     40.8
# ℹ 39 more rows
…
