Learn crime mapping with R - 3 Wrangling data
…
We can use the select() function from the dplyr package (one of the packages that is loaded automatically when we call the library(tidyverse) function) to select columns.

If we wanted to select just the date and location_type columns from the agg_assault_data we loaded in the previous section:

select(agg_assault_data, date, location_type)

# A tibble: 8,696 × 2
   date                location_type
   <dttm>              <chr>        
 1 2019-01-01 00:00:00 residence    
 2 2019-01-01 00:00:00 residence    
 3 2019-01-01 00:01:00 <NA>         
 4 2019-01-01 00:15:00 <NA>         
 5 2019-01-01 00:27:00 residence    
 6 2019-01-01 00:30:00 <NA>         
 7 2019-01-01 00:51:00 <NA>         
 8 2019-01-01 01:00:00 residence    
 9 2019-01-01 01:00:00 <NA>         
10 2019-01-01 01:12:00 residence    
# ℹ 8,686 more rows
…
In a previous section, we mentioned that the code needed to run (or call) a function in R has two parts: the function name followed by a pair of parentheses, inside which are zero or more arguments separated by commas. The arguments in the select() function (and many other functions in the dplyr package) work in a slightly different way to many other functions. Here, the first argument is the name of the data object that we want to select from. All the remaining arguments (here, date and location_type) are the names of the columns we want to select from the data.

We can select as many columns as we want, by just adding the names of the columns separated by commas.

Write the code necessary to select the longitude and latitude columns from the agg_assault_data object:

select(agg_assault_data, longitude, latitude)

# A tibble: 8,696 × 2
   longitude latitude
       <dbl>    <dbl>
 1     -97.7     30.3
 2     -97.8     30.2
 3     -97.7     30.3
 4     -97.7     30.3
 5     -97.8     30.2
 6     -97.7     30.3
 7     -97.7     30.3
 8     -97.7     30.4
 9     -97.7     30.3
10     -97.7     30.3
# ℹ 8,686 more rows

The columns in our new dataset will appear in the order in which we specify them in the select() function.

We can also use select() to rename columns at the same time as selecting them. For example, to select the columns date and location_type while also renaming location_type to be called type:

select(agg_assault_data, date, type = location_type)

# A tibble: 8,696 × 2
   date                type     
   <dttm>              <chr>    
 1 2019-01-01 00:00:00 residence
 2 2019-01-01 00:00:00 residence
 3 2019-01-01 00:01:00 <NA>     
 4 2019-01-01 00:15:00 <NA>     
 5 2019-01-01 00:27:00 residence
 6 2019-01-01 00:30:00 <NA>     
 7 2019-01-01 00:51:00 <NA>     
 8 2019-01-01 01:00:00 residence
 9 2019-01-01 01:00:00 <NA>     
10 2019-01-01 01:12:00 residence
# ℹ 8,686 more rows

If we want to rename a column while keeping all the columns in the data, we can instead use the rename() function (also from the dplyr package):

rename(agg_assault_data, type = location_type)

# A tibble: 8,696 × 5
   date                longitude latitude type      location_category
   <dttm>                  <dbl>    <dbl> <chr>     <chr>            
 1 2019-01-01 00:00:00     -97.7     30.3 residence residence        
 2 2019-01-01 00:00:00     -97.8     30.2 residence residence        
 3 2019-01-01 00:01:00     -97.7     30.3 <NA>      <NA>             
 4 2019-01-01 00:15:00     -97.7     30.3 <NA>      <NA>             
 5 2019-01-01 00:27:00     -97.8     30.2 residence residence        
 6 2019-01-01 00:30:00     -97.7     30.3 <NA>      <NA>             
 7 2019-01-01 00:51:00     -97.7     30.3 <NA>      <NA>             
 8 2019-01-01 01:00:00     -97.7     30.4 residence residence        
 9 2019-01-01 01:00:00     -97.7     30.3 <NA>      <NA>             
10 2019-01-01 01:12:00     -97.7     30.3 residence residence        
# ℹ 8,686 more rows
…
If we were only interested in offences in the agg_assault_data dataset that occurred in residences, we could use filter():

filter(agg_assault_data, location_type == "residence")

# A tibble: 4,385 × 5
   date                longitude latitude location_type location_category
   <dttm>                  <dbl>    <dbl> <chr>         <chr>            
 1 2019-01-01 00:00:00     -97.7     30.3 residence     residence        
 2 2019-01-01 00:00:00     -97.8     30.2 residence     residence        
 3 2019-01-01 00:27:00     -97.8     30.2 residence     residence        
 4 2019-01-01 01:00:00     -97.7     30.4 residence     residence        
 5 2019-01-01 01:12:00     -97.7     30.3 residence     residence        
 6 2019-01-01 01:20:00     -97.7     30.4 residence     residence        
 7 2019-01-01 01:50:00     -97.7     30.3 residence     residence        
 8 2019-01-01 02:21:00     -97.8     30.2 residence     residence        
 9 2019-01-01 02:26:00     -97.8     30.2 residence     residence        
10 2019-01-01 02:35:00     -97.7     30.4 residence     residence        
# ℹ 4,375 more rows
Note that:

the column name location_type is not surrounded by quotes but the column value "residence" is, and

the == (equal to) operator is used, since a single equals sign = has another meaning in R.

We can filter using the values of more than one column simultaneously. To filter offences in which the location_category is ‘retail’ and the location_type is ‘convenience store’:

filter(
  agg_assault_data, 
  location_category == "retail", 
  location_type == "convenience store"
)

# A tibble: 90 × 5
   date                longitude latitude location_type     location_category
   <dttm>                  <dbl>    <dbl> <chr>             <chr>            
 1 2019-01-06 16:58:00     -97.8     30.5 convenience store retail           
 2 2019-01-08 17:56:00     -97.7     30.3 convenience store retail           
 3 2019-01-10 01:25:00     -97.7     30.4 convenience store retail           
 4 2019-01-12 00:49:00     -97.6     30.4 convenience store retail           
 5 2019-01-12 05:53:00     -97.7     30.4 convenience store retail           
 6 2019-01-12 17:01:00     -97.7     30.4 convenience store retail           
 7 2019-01-12 19:12:00     -97.8     30.3 convenience store retail           
 8 2019-01-12 19:14:00     -97.7     30.4 convenience store retail           
 9 2019-01-13 04:10:00     -97.8     30.2 convenience store retail           
10 2019-01-22 22:01:00     -97.7     30.3 convenience store retail           
# ℹ 80 more rows

As well as filtering using the == operator, we can filter using the greater-than (>), less-than (<), greater-than-or-equal-to (>=) and less-than-or-equal-to (<=) operators. For example, we can choose offences that occurred in residences on or after 1 July 2019:

filter(
  agg_assault_data, 
  location_type == "residence", 
  date >= as.Date("2019-07-01")
)

# A tibble: 2,286 × 5
   date                longitude latitude location_type location_category
   <dttm>                  <dbl>    <dbl> <chr>         <chr>            
 1 2019-07-01 02:40:00     -97.8     30.4 residence     residence        
 2 2019-07-01 07:26:00     -97.7     30.3 residence     residence        
 3 2019-07-01 08:25:00     -97.8     30.2 residence     residence        
 4 2019-07-01 09:39:00     -97.7     30.3 residence     residence        
 5 2019-07-01 09:40:00     -97.7     30.4 residence     residence        
 6 2019-07-01 16:24:00     -97.8     30.1 residence     residence        
 7 2019-07-01 17:30:00     -97.8     30.2 residence     residence        
 8 2019-07-01 17:41:00     -97.8     30.2 residence     residence        
 9 2019-07-01 18:03:00     -97.8     30.2 residence     residence        
10 2019-07-01 18:16:00     -97.8     30.1 residence     residence        
# ℹ 2,276 more rows
…
If we want to filter offences that have any one of several different values of the same column, we can use the %in% (in) operator. To filter offences that occurred in either streets or publicly accessible open spaces:

filter(agg_assault_data, location_category %in% c("open space", "street"))

# A tibble: 165 × 5
   date                longitude latitude location_type location_category
   <dttm>                  <dbl>    <dbl> <chr>         <chr>            
 1 2019-01-07 21:37:00     -97.8     30.5 green space   open space       
 2 2019-01-08 14:02:00     -97.7     30.3 green space   open space       
 3 2019-01-10 01:59:00     -97.6     30.3 green space   open space       
 4 2019-01-11 17:00:00     -97.7     30.3 green space   open space       
 5 2019-01-12 15:50:00     -97.8     30.2 green space   open space       
 6 2019-01-12 16:00:00     -97.8     30.4 green space   open space       
 7 2019-01-15 07:20:00     -97.7     30.2 green space   open space       
 8 2019-01-17 00:00:00     -97.7     30.4 green space   open space       
 9 2019-01-22 22:00:00     -97.7     30.2 green space   open space       
10 2019-01-29 01:40:00     -97.7     30.2 green space   open space       
# ℹ 155 more rows

The code c("open space", "street") produces what is referred to in R as a vector (sometimes referred to as an atomic vector, especially in error messages). A vector is a one-dimensional sequence of values of the same type (i.e. all numbers, all character strings etc.). For example, a vector might hold several strings of text (as in the vector c("open space", "street")) or a series of numbers such as c(1, 2, 3). There is lots we could learn about vectors, but for now it’s only necessary to know that we can create vectors with the c() or combine function.

If we wanted to re-use a vector of values several times in our code, it might make sense to store the vector as an object. For example:

# Create vector of location types we are interested in
location_types <- c("open space", "street")

# Filter the data
filter(agg_assault_data, location_category %in% location_types)

# A tibble: 165 × 5
   date                longitude latitude location_type location_category
   <dttm>                  <dbl>    <dbl> <chr>         <chr>            
 1 2019-01-07 21:37:00     -97.8     30.5 green space   open space       
 2 2019-01-08 14:02:00     -97.7     30.3 green space   open space       
 3 2019-01-10 01:59:00     -97.6     30.3 green space   open space       
 4 2019-01-11 17:00:00     -97.7     30.3 green space   open space       
 5 2019-01-12 15:50:00     -97.8     30.2 green space   open space       
 6 2019-01-12 16:00:00     -97.8     30.4 green space   open space       
 7 2019-01-15 07:20:00     -97.7     30.2 green space   open space       
 8 2019-01-17 00:00:00     -97.7     30.4 green space   open space       
 9 2019-01-22 22:00:00     -97.7     30.2 green space   open space       
10 2019-01-29 01:40:00     -97.7     30.2 green space   open space       
# ℹ 155 more rows

Finally, you can filter based on the output of any R function that returns TRUE or FALSE. For example, missing values are represented in R as NA. We can test whether a value is missing using the is.na() function. If we wanted to remove rows from our data that had missing location types, we would filter for those rows that are not NA. We can do this by combining the is.na() function with the ! (not) operator:

filter(agg_assault_data, !is.na(location_type))

# A tibble: 5,344 × 5
   date                longitude latitude location_type location_category
   <dttm>                  <dbl>    <dbl> <chr>         <chr>            
 1 2019-01-01 00:00:00     -97.7     30.3 residence     residence        
 2 2019-01-01 00:00:00     -97.8     30.2 residence     residence        
 3 2019-01-01 00:27:00     -97.8     30.2 residence     residence        
 4 2019-01-01 01:00:00     -97.7     30.4 residence     residence        
 5 2019-01-01 01:12:00     -97.7     30.3 residence     residence        
 6 2019-01-01 01:20:00     -97.7     30.4 residence     residence        
 7 2019-01-01 01:35:00     -97.7     30.3 hotel         hotel            
 8 2019-01-01 01:50:00     -97.7     30.3 residence     residence        
 9 2019-01-01 02:21:00     -97.8     30.2 residence     residence        
10 2019-01-01 02:26:00     -97.8     30.2 residence     residence        
# ℹ 5,334 more rows
…
For example, say we wanted to create a new column in our aggravated-assault dataset specifying the day of the week on which each crime occurred. We can do this using the wday() function from the lubridate package (using the label = TRUE argument to produce weekday names, rather than numbers):

library(lubridate)

mutate(agg_assault_data, weekday = wday(date, label = TRUE))

# A tibble: 8,696 × 6
   date                longitude latitude location_type location_category
   <dttm>                  <dbl>    <dbl> <chr>         <chr>            
 1 2019-01-01 00:00:00     -97.7     30.3 residence     residence        
 2 2019-01-01 00:00:00     -97.8     30.2 residence     residence        
 3 2019-01-01 00:01:00     -97.7     30.3 <NA>          <NA>             
 4 2019-01-01 00:15:00     -97.7     30.3 <NA>          <NA>             
 5 2019-01-01 00:27:00     -97.8     30.2 residence     residence        
 6 2019-01-01 00:30:00     -97.7     30.3 <NA>          <NA>             
 7 2019-01-01 00:51:00     -97.7     30.3 <NA>          <NA>             
 8 2019-01-01 01:00:00     -97.7     30.4 residence     residence        
 9 2019-01-01 01:00:00     -97.7     30.3 <NA>          <NA>             
10 2019-01-01 01:12:00     -97.7     30.3 residence     residence        
# ℹ 8,686 more rows
# ℹ 1 more variable: weekday <ord>

Depending on the width of your screen, you might need to click the ▸ button to see the new variable.

We can also categorise an existing variable, for example creating a variable to show whether an offence occurred in the northern or southern half of the city:

mutate(
  agg_assault_data, 
  region = if_else(latitude > median(latitude), "northern", "southern")
)

# A tibble: 8,696 × 6
   date                longitude latitude location_type location_category region
   <dttm>                  <dbl>    <dbl> <chr>         <chr>             <chr> 
 1 2019-01-01 00:00:00     -97.7     30.3 residence     residence         north…
 2 2019-01-01 00:00:00     -97.8     30.2 residence     residence         south…
 3 2019-01-01 00:01:00     -97.7     30.3 <NA>          <NA>              south…
 4 2019-01-01 00:15:00     -97.7     30.3 <NA>          <NA>              south…
 5 2019-01-01 00:27:00     -97.8     30.2 residence     residence         south…
 6 2019-01-01 00:30:00     -97.7     30.3 <NA>          <NA>              south…
 7 2019-01-01 00:51:00     -97.7     30.3 <NA>          <NA>              north…
 8 2019-01-01 01:00:00     -97.7     30.4 residence     residence         north…
 9 2019-01-01 01:00:00     -97.7     30.3 <NA>          <NA>              north…
10 2019-01-01 01:12:00     -97.7     30.3 residence     residence         north…
# ℹ 8,686 more rows

We can change existing columns, although (as with objects) there is no way to undo this so you should only replace columns if you are sure you will not need them. For example, if we wanted to remove the time portion of the date variable (which may sometimes be useful, as shown in the next section) using the as_date() function (also from the lubridate package) and at the same time create the weekday variable:

mutate(
  agg_assault_data, 
  date = as_date(date),
  weekday = wday(date, label = TRUE)
)

# A tibble: 8,696 × 6
   date       longitude latitude location_type location_category weekday
   <date>         <dbl>    <dbl> <chr>         <chr>             <ord>  
 1 2019-01-01     -97.7     30.3 residence     residence         Tue    
 2 2019-01-01     -97.8     30.2 residence     residence         Tue    
 3 2019-01-01     -97.7     30.3 <NA>          <NA>              Tue    
 4 2019-01-01     -97.7     30.3 <NA>          <NA>              Tue    
 5 2019-01-01     -97.8     30.2 residence     residence         Tue    
 6 2019-01-01     -97.7     30.3 <NA>          <NA>              Tue    
 7 2019-01-01     -97.7     30.3 <NA>          <NA>              Tue    
 8 2019-01-01     -97.7     30.4 residence     residence         Tue    
 9 2019-01-01     -97.7     30.3 <NA>          <NA>              Tue    
10 2019-01-01     -97.7     30.3 residence     residence         Tue    
# ℹ 8,686 more rows
…
  agg_assault_data,
  # Change a single value with a new value (and otherwise keep the existing 
  # value) using the if_else() function
  location_type = if_else(location_type == "street", "road", location_type),
  # Change multiple values in a categorical variable using the recode() 
  # function, in which values are changed using arguments in the format
  # old_value = new_value
  location_category = recode(
    location_category, 
    "open space" = "public open space",
    "street" = "street or road"
  )
)

# A tibble: 8,696 × 5
   date                longitude latitude location_type location_category
   <dttm>                  <dbl>    <dbl> <chr>         <chr>            
 1 2019-01-01 00:00:00     -97.7     30.3 residence     residence        
 2 2019-01-01 00:00:00     -97.8     30.2 residence     residence        
 3 2019-01-01 00:01:00     -97.7     30.3 <NA>          <NA>             
 4 2019-01-01 00:15:00     -97.7     30.3 <NA>          <NA>             
 5 2019-01-01 00:27:00     -97.8     30.2 residence     residence        
 6 2019-01-01 00:30:00     -97.7     30.3 <NA>          <NA>             
 7 2019-01-01 00:51:00     -97.7     30.3 <NA>          <NA>             
 8 2019-01-01 01:00:00     -97.7     30.4 residence     residence        
 9 2019-01-01 01:00:00     -97.7     30.3 <NA>          <NA>             
10 2019-01-01 01:12:00     -97.7     30.3 residence     residence        
# ℹ 8,686 more rows
…
You can add multiple grouping variables using the c() (combine) function if you want to generate summary values for groups within groups:

summarise(
  agg_assault_data,
  mean_lng = mean(longitude, na.rm = TRUE),
  mean_lat = mean(latitude, na.rm = TRUE),
  .by = c(location_category, location_type)
)

# A tibble: 24 × 4
   location_category location_type     mean_lng mean_lat
   <chr>             <chr>                <dbl>    <dbl>
 1 residence         residence            -97.7     30.3
 2 <NA>              <NA>                 -97.7     30.3
 3 hotel             hotel                -97.7     30.3
 4 other             other                -97.7     30.3
 5 retail            other retail         -97.7     30.3
 6 healthcare        healthcare           -97.7     30.3
 7 retail            mall                 -97.8     30.3
 8 retail            convenience store    -97.7     30.3
 9 open space        green space          -97.7     30.3
10 commercial        office               -97.7     30.3
# ℹ 14 more rows
…
