10 Using data about places – Learn Crime Mapping with R
…
Warning: One or more parsing issues, call `problems()` on your data frame for details,
e.g.:
  dat <- vroom(...)
  problems(dat)

Rows: 9360 Columns: 1
── Column specification ────────────────────────────────────────────────────────
Delimiter: ","
chr (1): fecha_hecho;longitud;latitud;sexo;edad;modalidad

ℹ Use `spec()` to retrieve the full column specification for this data.
ℹ Specify the column types or set `show_col_types = FALSE` to quiet this message.

# A tibble: 9,360 × 1
   `fecha_hecho;longitud;latitud;sexo;edad;modalidad`                           
   <chr>                                                                        
 1 2019-04-23T12:30:00Z;-75,56985400000;6,25722555000;Mujer;50;Ahorcamiento o e…
 2 2019-05-12T00:51:00Z;-75,61036800000;6,22280611000;Hombre;24;Arma de fuego   
 3 2019-05-12T02:36:00Z;-75,62039100000;6,26238217000;Hombre;34;Arma de fuego   
 4 2019-05-12T03:03:00Z;-75,56176640000;6,26958878000;Hombre;20;Arma de fuego   
 5 2019-05-12T22:40:00Z;-75,53268500000;6,23627692000;Hombre;34;Arma de fuego   
 6 2019-05-12T19:30:00Z;-75,64195830000;6,19619536500;Hombre;25;Arma de fuego   
 7 2019-05-12T04:00:00Z;-75,55531860000;6,29015449800;Hombre;37;Cortopunzante   
 8 2019-05-13T05:34:00Z;-75,55719600000;6,27162258000;Hombre;22;Arma de fuego   
 9 2019-05-12T04:50:00Z;-75,56665500000;6,24002322000;Mujer;21;Ahorcamiento o e…
10 2019-05-14T01:00:00Z;-75,56219630000;6,24926189200;Hombre;29;Arma de fuego   
# ℹ 9,350 more rows
…
