Learn crime mapping with R - 12 Handling messy data
…
read_excel(str_glue("{tempdir()}/cybercrime.xlsx"), sheet = "Table E1")

New names:
• `` -> `...2`
• `` -> `...3`
• `` -> `...4`
• `` -> `...5`

# A tibble: 46 × 5
   Table E1:  Fraud and computer misuse by loss (of mo…¹ ...2  ...3  ...4  ...5 
   <chr>                                                 <chr> <chr> <chr> <chr>
 1 <NA>                                                  <NA>  <NA>  <NA>  <NA> 
 2 England and Wales                                     <NA>  <NA>  <NA>  Adul…
 3 Offence group3                                        Numb… Rate… Numb… Perc…
 4 <NA>                                                  <NA>  <NA>  <NA>  <NA> 
 5 FRAUD5                                                3648  78.0… 3078  6.58…
 6 <NA>                                                  <NA>  <NA>  <NA>  <NA> 
 7 With loss, no or only partial reimbursement           660   14.1… 613   1.31…
 8 With loss, fully reimbursed                           2066  44.2… 1765  3.77…
 9 Without loss                                          922   19.7… 804   1.72…
10 <NA>                                                  <NA>  <NA>  <NA>  <NA> 
# ℹ 36 more rows
# ℹ abbreviated name:
#   ¹​`Table E1:  Fraud and computer misuse by loss (of money or property) - number and rate of incidents and number and percentage of victims, year ending December 2018 CSEW1,2`

It’s clear that this dataset has not loaded in the way that we want, because the first row doesn’t contain the column names. Fortunately, we can deal with this problem using the skip argument to the read_excel() function. This allows us to specify a number of rows to ignore at the start of the dataset. In this case, we want to ignore the first three rows of the data (the table title, a blank line and the the metadata line), so we can specify skip = 3. The same skip argument also exists in the read_csv() function for reading CSV data and the read_tsv() function for reading tab-separated data.

read_excel(
  str_glue("{tempdir()}/cybercrime.xlsx"), 
  sheet = "Table E1", 
  skip = 3
)

# A tibble: 43 × 5
   `Offence group3`                Number of incidents …¹ Rate per 1,000 adult…²
   <chr>                                            <dbl>                  <dbl>
 1 <NA>                                                NA                  NA   
 2 FRAUD5                                            3648                  78.0 
 3 <NA>                                                NA                  NA   
 4 With loss, no or only partial …                    660                  14.1 
 5 With loss, fully reimbursed                       2066                  44.2 
 6 Without loss                                       922                  19.7 
 7 <NA>                                                NA                  NA   
 8 Bank and credit account fraud                     2433                  52.0 
 9 With loss, no or only partial …                    235                   5.03
10 With loss, fully reimbursed                       1727                  36.9 
# ℹ 33 more rows
# ℹ abbreviated names: ¹​`Number of incidents (thousands)`,
#   ²​`Rate per 1,000 adults`
# ℹ 2 more variables: `Number of victims (thousands)4` <dbl>,
#   `Percentage victims once or more4` <dbl>
…
We can remove these extra rows at the end of our data using the slice() function from the dplyr package. slice() allows us to choose certain rows from our data by row number. Looking at the screen shot above, our data finishes on row 34 (row 36 looks like part of our data but the value there actually shows the number of people involved in the survey, not a number of incidents). But:

we have already removed the first three rows using the skip argument to read_excel(), and

row four of the original spreadsheet has become our column names,

so row 34 on the spreadsheet is actually row 30 in our loaded dataset. Knowing this, we can remove all the rows below row 30 using slice():

str_glue("{tempdir()}/cybercrime.xlsx") |> 
  read_excel(sheet = "Table E1", skip = 3) |> 
  slice(1:30)

# A tibble: 30 × 5
   `Offence group3`                Number of incidents …¹ Rate per 1,000 adult…²
   <chr>                                            <dbl>                  <dbl>
 1 <NA>                                                NA                  NA   
 2 FRAUD5                                            3648                  78.0 
 3 <NA>                                                NA                  NA   
 4 With loss, no or only partial …                    660                  14.1 
 5 With loss, fully reimbursed                       2066                  44.2 
 6 Without loss                                       922                  19.7 
 7 <NA>                                                NA                  NA   
 8 Bank and credit account fraud                     2433                  52.0 
 9 With loss, no or only partial …                    235                   5.03
10 With loss, fully reimbursed                       1727                  36.9 
# ℹ 20 more rows
# ℹ abbreviated names: ¹​`Number of incidents (thousands)`,
#   ²​`Rate per 1,000 adults`
# ℹ 2 more variables: `Number of victims (thousands)4` <dbl>,
#   `Percentage victims once or more4` <dbl>
…
str_glue("{tempdir()}/cybercrime.xlsx") |> 
  read_excel(sheet = "Table E1", skip = 3) |> 
  slice(1:30) |> 
  remove_empty(which = "rows") |> 
  clean_names() |> 
  rename(
    offence = offence_group3, 
    crimes = number_of_incidents_thousands, 
    incidence = rate_per_1_000_adults, 
    victims = number_of_victims_thousands_4, 
    prevalence = percentage_victims_once_or_more4
  )

# A tibble: 22 × 5
   offence                                   crimes incidence victims prevalence
   <chr>                                      <dbl>     <dbl>   <dbl>      <dbl>
 1 FRAUD5                                      3648     78.0     3078      6.58 
 2 With loss, no or only partial reimbursem…    660     14.1      613      1.31 
 3 With loss, fully reimbursed                 2066     44.2     1765      3.78 
 4 Without loss                                 922     19.7      804      1.72 
 5 Bank and credit account fraud               2433     52.0     2056      4.40 
 6 With loss, no or only partial reimbursem…    235      5.03     211      0.451
 7 With loss, fully reimbursed                 1727     36.9     1458      3.12 
 8 Without loss                                 470     10.1      419      0.896
 9 Consumer and retail fraud6                  1031     22.1      954      2.04 
10 With loss, no or only partial reimbursem…    380      8.13     361      0.771
# ℹ 12 more rows
…
